\relax 
\providecommand\hyper@newdestlabel[2]{}
\@writefile{toc}{\contentsline {chapter}{Appendix C: Extra Results}{131}{appendix*.144}\protected@file@percent }
\newlabel{appn:extras}{{C}{131}{Appendix C\\Extra Results}{appendix*.144}{}}
\@writefile{toc}{\contentsline {section}{\numberline {C.1}Leg analysis}{131}{section.145}\protected@file@percent }
\newlabel{appn:extras:leg_analysis}{{C.1}{131}{Leg analysis}{section.145}{}}
\@writefile{toc}{\contentsline {subsection}{\numberline {C.1.1}Building the catalogue}{131}{subsection.146}\protected@file@percent }
\@writefile{toc}{\contentsline {subsection}{\numberline {C.1.2}Weight}{133}{subsection.148}\protected@file@percent }
\@writefile{toc}{\contentsline {section}{\numberline {C.2}Thermal model}{133}{section.149}\protected@file@percent }
\@writefile{toc}{\contentsline {section}{\numberline {C.3}\textsc  {CMB-S4}\xspace  ($L,C$) choices}{135}{section.151}\protected@file@percent }
\@setckpt{appendices/C-extras/fill}{
\setcounter{page}{137}
\setcounter{equation}{0}
\setcounter{enumi}{0}
\setcounter{enumii}{0}
\setcounter{enumiii}{0}
\setcounter{enumiv}{0}
\setcounter{footnote}{0}
\setcounter{mpfootnote}{0}
\setcounter{part}{0}
\setcounter{chapter}{3}
\setcounter{section}{3}
\setcounter{subsection}{0}
\setcounter{subsubsection}{0}
\setcounter{paragraph}{0}
\setcounter{subparagraph}{0}
\setcounter{figure}{0}
\setcounter{table}{0}
\setcounter{LT@tables}{0}
\setcounter{LT@chunks}{0}
\setcounter{caption@flags}{0}
\setcounter{continuedfloat}{0}
\setcounter{Item}{0}
\setcounter{Hfootnote}{40}
\setcounter{bookmark@seq@number}{47}
\setcounter{parentequation}{0}
\setcounter{subfigure}{0}
\setcounter{lofdepth}{1}
\setcounter{subtable}{0}
\setcounter{lotdepth}{1}
\setcounter{float@type}{16}
\setcounter{lstnumber}{1}
\setcounter{tcbbreakpart}{1}
\setcounter{tcblayer}{0}
\setcounter{tcolorbox@number}{104}
\setcounter{tcbrastercolumn}{0}
\setcounter{tcbrasterrow}{0}
\setcounter{tcbraster}{0}
\setcounter{tcblisting}{0}
\setcounter{pp@next@reset}{0}
\setcounter{eqnum}{2}
\setcounter{fignum}{3}
\setcounter{section@level}{0}
\setcounter{lstlisting}{0}
}
