\relax 
\providecommand\hyper@newdestlabel[2]{}
\citation{phys.org:Planck_summary}
\@writefile{toc}{\contentsline {chapter}{Chapter 1: Cosmology}{1}{chapter*.5}\protected@file@percent }
\newlabel{cosm}{{1}{1}{Chapter 1\\Cosmology}{chapter*.5}{}}
\citation{wiki:History}
\citation{CMBS4:2016:science}
\citation{thesis:Karkare:2017}
\citation{Einstein:1905}
\citation{Einstein:1915}
\citation{Hubble:1926}
\citation{Friedmann:1922}
\citation{Hubble:1929}
\citation{Alpher:1948}
\citation{Gamow:1946}
\citation{Alpher:1948b}
\citation{Penzias:1965}
\citation{Dicke:1965}
\newlabel{cosm:challenges}{{1}{2}{Chapter 1\\Cosmology}{figure.caption.6}{}}
\@writefile{toc}{\contentsline {section}{\numberline {1.1}A brief history of cosmology}{2}{section.7}\protected@file@percent }
\newlabel{cosm:intro}{{1.1}{2}{A brief history of cosmology}{section.7}{}}
\citation{book:Dodelson:2003}
\citation{book:MTW:1970}
\@writefile{toc}{\contentsline {section}{\numberline {1.2}The expanding universe}{3}{section.9}\protected@file@percent }
\newlabel{cosm:expansion}{{1.2}{3}{The expanding universe}{section.9}{}}
\citation{Planck:2018:constraints}
\citation{Freedman:2021}
\citation{Planck:2018:constraints}
\citation{Aad:2020}
\citation{Guth:1981}
\citation{Linde:2014}
\citation{book:Dodelson:2003}
\citation{book:Mukhanov:2007}
\citation{book:Mukhanov:2005}
\@writefile{toc}{\contentsline {section}{\numberline {1.3}Inflation}{9}{section.11}\protected@file@percent }
\newlabel{cosm:inflation}{{1.3}{9}{Inflation}{section.11}{}}
\citation{Kamionkowski:2016}
\citation{Kaloper:2019}
\newlabel{cosm:perturbations}{{1.3}{13}{}{figure.caption.13}{}}
\citation{Khoury:2003}
\citation{Planck:2018:constraints}
\citation{BK:2021}
\citation{BICEPKeck:2018:overview}
\citation{BK:2021}
\citation{Mather:1994}
\@writefile{toc}{\contentsline {section}{\numberline {1.4}The CMB}{15}{section.15}\protected@file@percent }
\newlabel{cosm:cmb}{{1.4}{15}{The CMB}{section.15}{}}
\citation{book:Mukhanov:2005}
\citation{Betti:2019}
\citation{Coc:2017}
\citation{bicepkeck.org:visuals}
\citation{Fixsen:2009}
\citation{Crill:2003}
\citation{Rabii:2006}
\citation{thesis:Hu:2009}
\citation{Dodelson:2003}
\citation{Nagy:2017}
\citation{wiki:Stokes}
\citation{bicepkeck.org:visuals}
\citation{Kamionkowski:2016}
\citation{Hu:1997}
\citation{Hu:1997b}
\citation{Planck:2016}
\citation{Lewis:2000}
\citation{Gorski:1999}
\citation{Choi:2020}
\citation{Mather:1994}
\citation{Smoot:1992}
\citation{Bennett:2003}
\citation{Planck:I:2020}
\citation{Linde:2014}
\@writefile{toc}{\contentsline {section}{\numberline {1.5}Challenges in measuring the CMB}{24}{section.24}\protected@file@percent }
\newlabel{cosm:challenges}{{1.5}{24}{Challenges in measuring the CMB}{section.24}{}}
\citation{SPO:2021}
\@writefile{toc}{\contentsline {section}{\numberline {1.6}Thesis outline}{25}{section.26}\protected@file@percent }
\newlabel{cosm:outline}{{1.6}{25}{Thesis outline}{section.26}{}}
\@setckpt{chapters/0-cosmology/fill}{
\setcounter{page}{27}
\setcounter{equation}{0}
\setcounter{enumi}{0}
\setcounter{enumii}{0}
\setcounter{enumiii}{0}
\setcounter{enumiv}{0}
\setcounter{footnote}{5}
\setcounter{mpfootnote}{0}
\setcounter{part}{0}
\setcounter{chapter}{1}
\setcounter{section}{6}
\setcounter{subsection}{0}
\setcounter{subsubsection}{0}
\setcounter{paragraph}{0}
\setcounter{subparagraph}{0}
\setcounter{figure}{0}
\setcounter{table}{0}
\setcounter{LT@tables}{0}
\setcounter{LT@chunks}{0}
\setcounter{caption@flags}{0}
\setcounter{continuedfloat}{0}
\setcounter{Item}{0}
\setcounter{Hfootnote}{6}
\setcounter{bookmark@seq@number}{7}
\setcounter{parentequation}{0}
\setcounter{subfigure}{0}
\setcounter{lofdepth}{1}
\setcounter{subtable}{0}
\setcounter{lotdepth}{1}
\setcounter{float@type}{16}
\setcounter{lstnumber}{1}
\setcounter{tcbbreakpart}{1}
\setcounter{tcblayer}{0}
\setcounter{tcolorbox@number}{24}
\setcounter{tcbrastercolumn}{0}
\setcounter{tcbrasterrow}{0}
\setcounter{tcbraster}{0}
\setcounter{tcblisting}{0}
\setcounter{pp@next@reset}{0}
\setcounter{eqnum}{17}
\setcounter{fignum}{10}
\setcounter{section@level}{0}
\setcounter{lstlisting}{0}
}
