\relax 
\providecommand\hyper@newdestlabel[2]{}
\providecommand\HyperFirstAtBeginDocument{\AtBeginDocument}
\HyperFirstAtBeginDocument{\ifx\hyper@anchor\@undefined
\global\let\oldcontentsline\contentsline
\gdef\contentsline#1#2#3#4{\oldcontentsline{#1}{#2}{#3}}
\global\let\oldnewlabel\newlabel
\gdef\newlabel#1#2{\newlabelxx{#1}#2}
\gdef\newlabelxx#1#2#3#4#5#6{\oldnewlabel{#1}{{#2}{#3}}}
\AtEndDocument{\ifx\hyper@anchor\@undefined
\let\contentsline\oldcontentsline
\let\newlabel\oldnewlabel
\fi}
\fi}
\global\let\hyper@last\relax 
\gdef\HyperFirstAtBeginDocument#1{#1}
\providecommand\HyField@AuxAddToFields[1]{}
\providecommand\HyField@AuxAddToCoFields[2]{}
\@input{fill.aux}
\expandafter\gdef\csname\detokenize{cosm:intro_pic}\endcsname{fig.1.1}
\expandafter\gdef\csname\detokenize{cosm:ee}\endcsname{box.1.1}
\expandafter\gdef\csname\detokenize{cosm:flrw}\endcsname{box.1.2}
\expandafter\gdef\csname\detokenize{cosm:hl_law}\endcsname{box.1.3}
\expandafter\gdef\csname\detokenize{cosm:horizons}\endcsname{box.1.4}
\expandafter\gdef\csname\detokenize{cosm:FEqs}\endcsname{box.1.5}
\expandafter\gdef\csname\detokenize{cosm:Ftable}\endcsname{box.1.6}
\expandafter\gdef\csname\detokenize{cosm:crit}\endcsname{box.1.7}
\expandafter\gdef\csname\detokenize{cosm:horz_prob}\endcsname{box.1.8}
\expandafter\gdef\csname\detokenize{cosm:flat_prob}\endcsname{box.1.9}
\expandafter\gdef\csname\detokenize{cosm:lagrangian}\endcsname{box.1.10}
\expandafter\gdef\csname\detokenize{cosm:eqom}\endcsname{box.1.11}
\expandafter\gdef\csname\detokenize{cosm:attractors}\endcsname{fig.1.2}
\expandafter\gdef\csname\detokenize{cosm:sr_params}\endcsname{box.1.12}
\expandafter\gdef\csname\detokenize{cosm:scaling}\endcsname{fig.1.3}
\expandafter\gdef\csname\detokenize{cosm:perts}\endcsname{box.1.13}
\expandafter\gdef\csname\detokenize{cosm:tilts}\endcsname{box.1.14}
\expandafter\gdef\csname\detokenize{cosm:r}\endcsname{box.1.15}
\expandafter\gdef\csname\detokenize{cosm:constraints}\endcsname{fig.1.4}
\expandafter\gdef\csname\detokenize{cosm:therm_hist}\endcsname{fig.1.5}
\expandafter\gdef\csname\detokenize{cosm:sp}\endcsname{fig.1.6}
\expandafter\gdef\csname\detokenize{cosm:modes}\endcsname{fig.1.7}
\expandafter\gdef\csname\detokenize{cosm:eandb}\endcsname{fig.1.8}
\expandafter\gdef\csname\detokenize{cosm:ylms}\endcsname{box.1.16}
\expandafter\gdef\csname\detokenize{cosm:cmb_spectra}\endcsname{fig.1.9}
\bibstyle{../../unsrt_short}
\bibdata{../../mybib}
\bibcite{phys.org:Planck_summary}{1}
\bibcite{wiki:History}{2}
\bibcite{CMBS4:2016:science}{3}
\bibcite{thesis:Karkare:2017}{4}
\bibcite{Einstein:1905}{5}
\bibcite{Einstein:1915}{6}
\bibcite{Hubble:1926}{7}
\bibcite{Friedmann:1922}{8}
\bibcite{Hubble:1929}{9}
\bibcite{Alpher:1948}{10}
\bibcite{Gamow:1946}{11}
\bibcite{Alpher:1948b}{12}
\bibcite{Penzias:1965}{13}
\bibcite{Dicke:1965}{14}
\bibcite{book:Dodelson:2003}{15}
\bibcite{book:MTW:1970}{16}
\bibcite{Planck:2018:constraints}{17}
\bibcite{Freedman:2021}{18}
\bibcite{Aad:2020}{19}
\bibcite{Guth:1981}{20}
\bibcite{Linde:2014}{21}
\bibcite{book:Mukhanov:2007}{22}
\bibcite{book:Mukhanov:2005}{23}
\bibcite{Kamionkowski:2016}{24}
\bibcite{Kaloper:2019}{25}
\bibcite{Khoury:2003}{26}
\bibcite{BK:2021}{27}
\bibcite{BICEPKeck:2018:overview}{28}
\bibcite{Mather:1994}{29}
\bibcite{Betti:2019}{30}
\bibcite{Coc:2017}{31}
\bibcite{bicepkeck.org:visuals}{32}
\bibcite{Fixsen:2009}{33}
\bibcite{Crill:2003}{34}
\bibcite{Rabii:2006}{35}
\bibcite{thesis:Hu:2009}{36}
\bibcite{Dodelson:2003}{37}
\bibcite{Nagy:2017}{38}
\bibcite{wiki:Stokes}{39}
\bibcite{Hu:1997}{40}
\bibcite{Hu:1997b}{41}
\bibcite{Planck:2016}{42}
\bibcite{Lewis:2000}{43}
\bibcite{Gorski:1999}{44}
\bibcite{Choi:2020}{45}
\bibcite{Smoot:1992}{46}
\bibcite{Bennett:2003}{47}
\bibcite{Planck:I:2020}{48}
\bibcite{SPO:2021}{49}
