\relax 
\providecommand\hyper@newdestlabel[2]{}
\@writefile{toc}{\contentsline {chapter}{Chapter 2: SPIDER}{27}{chapter*.28}\protected@file@percent }
\newlabel{spider}{{2}{27}{Chapter 2\\SPIDER}{chapter*.28}{}}
\citation{Gualtieri:2018}
\citation{Rahlin:2014}
\citation{Fraisse:2013}
\citation{Filippini:2010}
\citation{Runyan:2010}
\citation{Fraisse:2013}
\citation{Hubmayr:2016}
\citation{Bergman:2018}
\citation{Shaw:2020}
\citation{Carlstrom:2011}
\citation{Fowler:2007}
\@writefile{toc}{\contentsline {section}{\numberline {2.1}Ballooning from Antarctica}{28}{section.31}\protected@file@percent }
\citation{thesis:Rahlin:2016}
\citation{Soler:2014}
\citation{nasa.gov:CSBF_balloons}
\citation{Gualtieri:2018}
\citation{Rahlin:2014}
\citation{Gudmundsson:2015}
\@writefile{toc}{\contentsline {section}{\numberline {2.2}Payload components}{30}{section.33}\protected@file@percent }
\citation{Shariff:2014}
\citation{Rahlin:2014}
\citation{Shariff:2014}
\citation{Rahlin:2014}
\citation{Shariff:2014}
\citation{Gandilo:2014}
\@writefile{toc}{\contentsline {section}{\numberline {2.3}Inserts and optics}{32}{section.37}\protected@file@percent }
\citation{Rahlin:2014}
\citation{Ade:2006}
\citation{Rahlin:2014}
\citation{Bryan:2014}
\@writefile{toc}{\contentsline {section}{\numberline {2.4}Detectors and readout}{35}{section.42}\protected@file@percent }
\citation{Kuo:2008}
\citation{Ade:2015}
\citation{Hubmayr:2016}
\citation{DeKorte:2003}
\citation{Battistelli:2008}
\newlabel{spider:multiplexing}{{2.4}{37}{}{figure.caption.46}{}}
\citation{thesis:Rahlin:2016}
\citation{Planck:X:2016}
\citation{SPIDER:2021}
\@writefile{toc}{\contentsline {section}{\numberline {2.5}STACY and WENDY}{43}{section.52}\protected@file@percent }
\@setckpt{chapters/1-spider/fill}{
\setcounter{page}{46}
\setcounter{equation}{0}
\setcounter{enumi}{0}
\setcounter{enumii}{0}
\setcounter{enumiii}{0}
\setcounter{enumiv}{0}
\setcounter{footnote}{12}
\setcounter{mpfootnote}{0}
\setcounter{part}{0}
\setcounter{chapter}{2}
\setcounter{section}{5}
\setcounter{subsection}{0}
\setcounter{subsubsection}{0}
\setcounter{paragraph}{0}
\setcounter{subparagraph}{0}
\setcounter{figure}{0}
\setcounter{table}{0}
\setcounter{LT@tables}{0}
\setcounter{LT@chunks}{0}
\setcounter{caption@flags}{0}
\setcounter{continuedfloat}{0}
\setcounter{Item}{0}
\setcounter{Hfootnote}{18}
\setcounter{bookmark@seq@number}{13}
\setcounter{parentequation}{0}
\setcounter{subfigure}{0}
\setcounter{lofdepth}{1}
\setcounter{subtable}{0}
\setcounter{lotdepth}{1}
\setcounter{float@type}{16}
\setcounter{lstnumber}{1}
\setcounter{tcbbreakpart}{1}
\setcounter{tcblayer}{0}
\setcounter{tcolorbox@number}{32}
\setcounter{tcbrastercolumn}{0}
\setcounter{tcbrasterrow}{0}
\setcounter{tcbraster}{0}
\setcounter{tcblisting}{0}
\setcounter{pp@next@reset}{0}
\setcounter{eqnum}{2}
\setcounter{fignum}{9}
\setcounter{section@level}{0}
\setcounter{lstlisting}{0}
}
