This is BibTeX, Version 0.99d (TeX Live 2020)
Capacity: max_strings=200000, hash_size=200000, hash_prime=170003
The top-level auxiliary file: main_chapter.aux
A level-1 auxiliary file: fill.aux
The style file: ../../unsrt_short.bst
Database file #1: ../../mybib.bib
Warning--empty author in nasa.gov:CSBF_balloons
Warning--empty year in nasa.gov:CSBF_balloons
Warning--empty journal in DeKorte:2003
Warning--there's a number but no volume in DeKorte:2003
Warning--empty publisher in SPIDER:2021
You've used 24 entries,
            1860 wiz_defined-function locations,
            644 strings with 12742 characters,
and the built_in function-call counts, 5301 in all, are:
= -- 476
> -- 232
< -- 4
+ -- 103
- -- 52
* -- 352
:= -- 874
add.period$ -- 73
call.type$ -- 24
change.case$ -- 23
chr.to.int$ -- 0
cite$ -- 29
duplicate$ -- 248
empty$ -- 504
format.name$ -- 52
if$ -- 1184
int.to.chr$ -- 0
int.to.str$ -- 24
missing$ -- 22
newline$ -- 124
num.names$ -- 27
pop$ -- 71
preamble$ -- 1
purify$ -- 0
quote$ -- 0
skip$ -- 130
stack$ -- 0
substring$ -- 272
swap$ -- 49
text.length$ -- 4
text.prefix$ -- 0
top$ -- 0
type$ -- 0
warning$ -- 5
while$ -- 40
width$ -- 26
write$ -- 276
(There were 5 warnings)
