\relax 
\providecommand\hyper@newdestlabel[2]{}
\providecommand\HyperFirstAtBeginDocument{\AtBeginDocument}
\HyperFirstAtBeginDocument{\ifx\hyper@anchor\@undefined
\global\let\oldcontentsline\contentsline
\gdef\contentsline#1#2#3#4{\oldcontentsline{#1}{#2}{#3}}
\global\let\oldnewlabel\newlabel
\gdef\newlabel#1#2{\newlabelxx{#1}#2}
\gdef\newlabelxx#1#2#3#4#5#6{\oldnewlabel{#1}{{#2}{#3}}}
\AtEndDocument{\ifx\hyper@anchor\@undefined
\let\contentsline\oldcontentsline
\let\newlabel\oldnewlabel
\fi}
\fi}
\global\let\hyper@last\relax 
\gdef\HyperFirstAtBeginDocument#1{#1}
\providecommand\HyField@AuxAddToFields[1]{}
\providecommand\HyField@AuxAddToCoFields[2]{}
\@input{fill.aux}
\expandafter\gdef\csname\detokenize{spider:intro_pic}\endcsname{fig.2.1}
\expandafter\gdef\csname\detokenize{spider:payload_schematic}\endcsname{fig.2.2}
\expandafter\gdef\csname\detokenize{spider:insert_schematic}\endcsname{fig.2.3}
\expandafter\gdef\csname\detokenize{spider:wafers}\endcsname{fig.2.4}
\expandafter\gdef\csname\detokenize{spider:det_chain_simp}\endcsname{fig.2.5}
\expandafter\gdef\csname\detokenize{spider:sqd_trans}\endcsname{fig.2.6}
\expandafter\gdef\csname\detokenize{spider:multi_factor}\endcsname{box.2.1}
\expandafter\gdef\csname\detokenize{spider:simple_mce}\endcsname{fig.2.7}
\expandafter\gdef\csname\detokenize{spider:flight_path}\endcsname{fig.2.8}
\bibstyle{../../unsrt_short}
\bibdata{../../mybib}
\bibcite{Gualtieri:2018}{1}
\bibcite{Rahlin:2014}{2}
\bibcite{Fraisse:2013}{3}
\bibcite{Filippini:2010}{4}
\bibcite{Runyan:2010}{5}
\bibcite{Hubmayr:2016}{6}
\bibcite{Bergman:2018}{7}
\bibcite{Shaw:2020}{8}
\bibcite{Carlstrom:2011}{9}
\bibcite{Fowler:2007}{10}
\bibcite{thesis:Rahlin:2016}{11}
\bibcite{Soler:2014}{12}
\bibcite{nasa.gov:CSBF_balloons}{13}
\bibcite{Gudmundsson:2015}{14}
\bibcite{Shariff:2014}{15}
\bibcite{Gandilo:2014}{16}
\bibcite{Ade:2006}{17}
\bibcite{Bryan:2014}{18}
\bibcite{Kuo:2008}{19}
\bibcite{Ade:2015}{20}
\bibcite{DeKorte:2003}{21}
\bibcite{Battistelli:2008}{22}
\bibcite{Planck:X:2016}{23}
\bibcite{SPIDER:2021}{24}
