\relax 
\providecommand\hyper@newdestlabel[2]{}
\@writefile{toc}{\contentsline {chapter}{Appendix A: More Cosmology Equations}{104}{appendix*.132}\protected@file@percent }
\newlabel{appn:cosm}{{A}{104}{Appendix A\\More Cosmology Equations}{appendix*.132}{}}
\@writefile{toc}{\contentsline {section}{\numberline {A.1}General cosmology derivations}{104}{section.133}\protected@file@percent }
\@writefile{toc}{\contentsline {section}{\numberline {A.2}Inflation derivations}{107}{section.134}\protected@file@percent }
\citation{book:Weinberg:2008}
\citation{book:Mukhanov:2005}
\citation{book:Dodelson:2003}
\citation{Baumann:Notes}
\citation{Baumann:Notes}
\citation{Kamionkowski:2016}
\@writefile{toc}{\contentsline {section}{\numberline {A.3}$E$ and $B$ decomposition}{120}{section.137}\protected@file@percent }
\@setckpt{appendices/A-cosmology/fill}{
\setcounter{page}{121}
\setcounter{equation}{0}
\setcounter{enumi}{0}
\setcounter{enumii}{0}
\setcounter{enumiii}{0}
\setcounter{enumiv}{0}
\setcounter{footnote}{0}
\setcounter{mpfootnote}{0}
\setcounter{part}{0}
\setcounter{chapter}{1}
\setcounter{section}{3}
\setcounter{subsection}{0}
\setcounter{subsubsection}{0}
\setcounter{paragraph}{0}
\setcounter{subparagraph}{0}
\setcounter{figure}{0}
\setcounter{table}{0}
\setcounter{LT@tables}{0}
\setcounter{LT@chunks}{0}
\setcounter{caption@flags}{0}
\setcounter{continuedfloat}{0}
\setcounter{Item}{0}
\setcounter{Hfootnote}{40}
\setcounter{bookmark@seq@number}{39}
\setcounter{parentequation}{0}
\setcounter{subfigure}{0}
\setcounter{lofdepth}{1}
\setcounter{subtable}{0}
\setcounter{lotdepth}{1}
\setcounter{float@type}{16}
\setcounter{lstnumber}{1}
\setcounter{tcbbreakpart}{1}
\setcounter{tcblayer}{0}
\setcounter{tcolorbox@number}{101}
\setcounter{tcbrastercolumn}{0}
\setcounter{tcbrasterrow}{0}
\setcounter{tcbraster}{0}
\setcounter{tcblisting}{0}
\setcounter{pp@next@reset}{0}
\setcounter{eqnum}{22}
\setcounter{fignum}{1}
\setcounter{section@level}{0}
\setcounter{lstlisting}{0}
}
