\begin{thebibliography}{1}



\bibitem{book:Weinberg:2008}
S.~Weinberg.
\newblock {\em Cosmology}.
\newblock Oxford University Press, Great Clarendon Street, Oxford OX2 6DP, UK,
  2008.

\bibitem{book:Mukhanov:2005}
V.~Mukhanov.
\newblock {\em Physical Foundations of Cosmology}.
\newblock Cambridge University Press, Cambrdige, UK, 2005.

\bibitem{book:Dodelson:2003}
S.~Dodelson.
\newblock {\em Modern Cosmology}.
\newblock Academic Press, San Diego, California, USA, 2003.

\bibitem{Baumann:Notes}
Daniel Baumann.
\newblock Tasi lectures on inflation, 2009.

\bibitem{Kamionkowski:2016}
Marc Kamionkowski and Ely~D. Kovetz.
\newblock The quest for b modes from inflationary gravitational waves.
\newblock {\em Annual Review of Astronomy and Astrophysics}, 54(1):227–269,
  Annual Reviews, Sep 2016.

\end{thebibliography}
