\relax 
\providecommand\hyper@newdestlabel[2]{}
\providecommand\HyperFirstAtBeginDocument{\AtBeginDocument}
\HyperFirstAtBeginDocument{\ifx\hyper@anchor\@undefined
\global\let\oldcontentsline\contentsline
\gdef\contentsline#1#2#3#4{\oldcontentsline{#1}{#2}{#3}}
\global\let\oldnewlabel\newlabel
\gdef\newlabel#1#2{\newlabelxx{#1}#2}
\gdef\newlabelxx#1#2#3#4#5#6{\oldnewlabel{#1}{{#2}{#3}}}
\AtEndDocument{\ifx\hyper@anchor\@undefined
\let\contentsline\oldcontentsline
\let\newlabel\oldnewlabel
\fi}
\fi}
\global\let\hyper@last\relax 
\gdef\HyperFirstAtBeginDocument#1{#1}
\providecommand\HyField@AuxAddToFields[1]{}
\providecommand\HyField@AuxAddToCoFields[2]{}
\@input{fill.aux}
\expandafter\gdef\csname\detokenize{appn:cosm:conformal}\endcsname{box.A.1}
\expandafter\gdef\csname\detokenize{appn:cosm:conf_hub}\endcsname{box.A.2}
\expandafter\gdef\csname\detokenize{appn:cosm:coeffs}\endcsname{box.A.3}
\expandafter\gdef\csname\detokenize{appn:cosm:fluid}\endcsname{box.A.4}
\expandafter\gdef\csname\detokenize{appn:cosm:friedmanns}\endcsname{box.A.5}
\expandafter\gdef\csname\detokenize{appn:cosm:EL}\endcsname{box.A.6}
\expandafter\gdef\csname\detokenize{appn:cosm:svt}\endcsname{box.A.7}
\expandafter\gdef\csname\detokenize{appn:cosm:gauge}\endcsname{box.A.8}
\expandafter\gdef\csname\detokenize{appn:cosm:svt2}\endcsname{box.A.9}
\expandafter\gdef\csname\detokenize{appn:cosm:invars}\endcsname{box.A.10}
\expandafter\gdef\csname\detokenize{appn:cosm:invars2}\endcsname{box.A.11}
\expandafter\gdef\csname\detokenize{appn:cosm:svt4}\endcsname{box.A.12}
\expandafter\gdef\csname\detokenize{appn:cosm:negeta}\endcsname{box.A.13}
\expandafter\gdef\csname\detokenize{appn:cosm:deltaphi_sol1}\endcsname{box.A.14}
\expandafter\gdef\csname\detokenize{appn:cosm:deltaphi_sol2}\endcsname{box.A.15}
\expandafter\gdef\csname\detokenize{appn:cosm:deltaphi_sol3}\endcsname{box.A.16}
\expandafter\gdef\csname\detokenize{appn:cosm:deltaphi_quantize1}\endcsname{box.A.17}
\expandafter\gdef\csname\detokenize{appn:cosm:deltaphi_quantize2}\endcsname{box.A.18}
\expandafter\gdef\csname\detokenize{appn:cosm:deltaphi_spectrum}\endcsname{box.A.19}
\expandafter\gdef\csname\detokenize{appn:cosm:grav_waves}\endcsname{box.A.20}
\expandafter\gdef\csname\detokenize{appn:cosm:decomp}\endcsname{box.A.21}
\bibstyle{../../unsrt_short}
\bibdata{../../mybib}
\bibcite{book:Weinberg:2008}{1}
\bibcite{book:Mukhanov:2005}{2}
\bibcite{book:Dodelson:2003}{3}
\bibcite{Baumann:Notes}{4}
\bibcite{Kamionkowski:2016}{5}
