This is BibTeX, Version 0.99d (TeX Live 2020)
Capacity: max_strings=200000, hash_size=200000, hash_prime=170003
The top-level auxiliary file: main_chapter.aux
A level-1 auxiliary file: fill.aux
The style file: ../../unsrt_short.bst
Database file #1: ../../mybib.bib
You've used 5 entries,
            1860 wiz_defined-function locations,
            489 strings with 4259 characters,
and the built_in function-call counts, 853 in all, are:
= -- 71
> -- 25
< -- 0
+ -- 12
- -- 6
* -- 38
:= -- 138
add.period$ -- 14
call.type$ -- 5
change.case$ -- 2
chr.to.int$ -- 0
cite$ -- 5
duplicate$ -- 45
empty$ -- 103
format.name$ -- 6
if$ -- 195
int.to.chr$ -- 0
int.to.str$ -- 5
missing$ -- 7
newline$ -- 29
num.names$ -- 5
pop$ -- 27
preamble$ -- 1
purify$ -- 0
quote$ -- 0
skip$ -- 15
stack$ -- 0
substring$ -- 27
swap$ -- 5
text.length$ -- 0
text.prefix$ -- 0
top$ -- 0
type$ -- 0
warning$ -- 0
while$ -- 6
width$ -- 6
write$ -- 55
