\relax 
\providecommand\hyper@newdestlabel[2]{}
\providecommand\HyperFirstAtBeginDocument{\AtBeginDocument}
\HyperFirstAtBeginDocument{\ifx\hyper@anchor\@undefined
\global\let\oldcontentsline\contentsline
\gdef\contentsline#1#2#3#4{\oldcontentsline{#1}{#2}{#3}}
\global\let\oldnewlabel\newlabel
\gdef\newlabel#1#2{\newlabelxx{#1}#2}
\gdef\newlabelxx#1#2#3#4#5#6{\oldnewlabel{#1}{{#2}{#3}}}
\AtEndDocument{\ifx\hyper@anchor\@undefined
\let\contentsline\oldcontentsline
\let\newlabel\oldnewlabel
\fi}
\fi}
\global\let\hyper@last\relax 
\gdef\HyperFirstAtBeginDocument#1{#1}
\providecommand\HyField@AuxAddToFields[1]{}
\providecommand\HyField@AuxAddToCoFields[2]{}
\@input{chapters/0-cosmology/fill.aux}
\expandafter\gdef\csname\detokenize{cosm:intro_pic}\endcsname{fig.1.1}
\expandafter\gdef\csname\detokenize{cosm:ee}\endcsname{box.1.1}
\expandafter\gdef\csname\detokenize{cosm:flrw}\endcsname{box.1.2}
\expandafter\gdef\csname\detokenize{cosm:hl_law}\endcsname{box.1.3}
\expandafter\gdef\csname\detokenize{cosm:horizons}\endcsname{box.1.4}
\expandafter\gdef\csname\detokenize{cosm:FEqs}\endcsname{box.1.5}
\expandafter\gdef\csname\detokenize{cosm:Ftable}\endcsname{box.1.6}
\expandafter\gdef\csname\detokenize{cosm:crit}\endcsname{box.1.7}
\expandafter\gdef\csname\detokenize{cosm:horz_prob}\endcsname{box.1.8}
\expandafter\gdef\csname\detokenize{cosm:flat_prob}\endcsname{box.1.9}
\expandafter\gdef\csname\detokenize{cosm:lagrangian}\endcsname{box.1.10}
\expandafter\gdef\csname\detokenize{cosm:eqom}\endcsname{box.1.11}
\expandafter\gdef\csname\detokenize{cosm:attractors}\endcsname{fig.1.2}
\expandafter\gdef\csname\detokenize{cosm:scaling}\endcsname{fig.1.3}
\expandafter\gdef\csname\detokenize{cosm:sr_params}\endcsname{box.1.12}
\expandafter\gdef\csname\detokenize{cosm:perts}\endcsname{box.1.13}
\expandafter\gdef\csname\detokenize{cosm:tilts}\endcsname{box.1.14}
\expandafter\gdef\csname\detokenize{cosm:r}\endcsname{box.1.15}
\expandafter\gdef\csname\detokenize{cosm:constraints}\endcsname{fig.1.4}
\expandafter\gdef\csname\detokenize{cosm:therm_hist}\endcsname{fig.1.5}
\expandafter\gdef\csname\detokenize{cosm:sp}\endcsname{fig.1.6}
\expandafter\gdef\csname\detokenize{cosm:modes}\endcsname{fig.1.7}
\expandafter\gdef\csname\detokenize{cosm:eandb}\endcsname{fig.1.8}
\expandafter\gdef\csname\detokenize{cosm:ylms}\endcsname{box.1.16}
\expandafter\gdef\csname\detokenize{cosm:cmb_spectra}\endcsname{fig.1.9}
\@input{chapters/1-spider/fill.aux}
\expandafter\gdef\csname\detokenize{spider:intro_pic}\endcsname{fig.2.1}
\expandafter\gdef\csname\detokenize{spider:payload_schematic}\endcsname{fig.2.2}
\expandafter\gdef\csname\detokenize{spider:insert_schematic}\endcsname{fig.2.3}
\expandafter\gdef\csname\detokenize{spider:wafers}\endcsname{fig.2.4}
\expandafter\gdef\csname\detokenize{spider:det_chain_simp}\endcsname{fig.2.5}
\expandafter\gdef\csname\detokenize{spider:sqd_trans}\endcsname{fig.2.6}
\expandafter\gdef\csname\detokenize{spider:multi_factor}\endcsname{box.2.1}
\expandafter\gdef\csname\detokenize{spider:simple_mce}\endcsname{fig.2.7}
\expandafter\gdef\csname\detokenize{spider:flight_path}\endcsname{fig.2.8}
\@input{chapters/2-detectors/fill.aux}
\expandafter\gdef\csname\detokenize{dets:intro_pic}\endcsname{fig.3.1}
\expandafter\gdef\csname\detokenize{dets:isl}\endcsname{fig.3.2}
\expandafter\gdef\csname\detokenize{dets:thm_dia}\endcsname{fig.3.3}
\expandafter\gdef\csname\detokenize{dets:thm_eq}\endcsname{box.3.1}
\expandafter\gdef\csname\detokenize{dets:thm_sub}\endcsname{box.3.2}
\expandafter\gdef\csname\detokenize{dets:ele_dia}\endcsname{fig.3.4}
\expandafter\gdef\csname\detokenize{dets:ele_eq}\endcsname{box.3.3}
\expandafter\gdef\csname\detokenize{dets:ele_thev}\endcsname{fig.3.5}
\expandafter\gdef\csname\detokenize{dets:ele_sub}\endcsname{box.3.4}
\expandafter\gdef\csname\detokenize{dets:alphabeta}\endcsname{box.3.5}
\expandafter\gdef\csname\detokenize{dets:tes_thm_linear}\endcsname{box.3.6}
\expandafter\gdef\csname\detokenize{dets:tes_ele_linear}\endcsname{box.3.7}
\expandafter\gdef\csname\detokenize{dets:tes_linear}\endcsname{box.3.8}
\expandafter\gdef\csname\detokenize{dets:tes_homogeneous}\endcsname{box.3.9}
\expandafter\gdef\csname\detokenize{dets:taus}\endcsname{fig.3.6}
\expandafter\gdef\csname\detokenize{dets:tes_response}\endcsname{box.3.10}
\expandafter\gdef\csname\detokenize{dets:tes_bias}\endcsname{box.3.11}
\expandafter\gdef\csname\detokenize{dets:sims}\endcsname{fig.3.7}
\expandafter\gdef\csname\detokenize{dets:loadcurves}\endcsname{fig.3.8}
\@input{chapters/3-noise/fill.aux}
\expandafter\gdef\csname\detokenize{nse:intro_fig}\endcsname{fig.4.1}
\expandafter\gdef\csname\detokenize{nse:photon_noise}\endcsname{box.4.1}
\expandafter\gdef\csname\detokenize{nse:phonon_noise}\endcsname{box.4.2}
\expandafter\gdef\csname\detokenize{nse:johnson_noise}\endcsname{box.4.3}
\expandafter\gdef\csname\detokenize{nse:NEI_conv}\endcsname{box.4.4}
\expandafter\gdef\csname\detokenize{nse:excess}\endcsname{box.4.5}
\expandafter\gdef\csname\detokenize{nse:sq_plat}\endcsname{box.4.6}
\expandafter\gdef\csname\detokenize{nse:total_sim}\endcsname{fig.4.2}
\expandafter\gdef\csname\detokenize{nse:sets}\endcsname{fig.4.3}
\expandafter\gdef\csname\detokenize{nse:lcs}\endcsname{fig.4.4}
\expandafter\gdef\csname\detokenize{nse:anom}\endcsname{fig.4.5}
\expandafter\gdef\csname\detokenize{nse:cuts1}\endcsname{box.4.7}
\expandafter\gdef\csname\detokenize{nse:param_fit}\endcsname{fig.4.6}
\expandafter\gdef\csname\detokenize{nse:pretty}\endcsname{fig.4.7}
\expandafter\gdef\csname\detokenize{nse:m_hist}\endcsname{fig.4.8}
\@input{chapters/4-cmbs4/fill.aux}
\expandafter\gdef\csname\detokenize{cmbs4:intro_pic}\endcsname{fig.5.1}
\expandafter\gdef\csname\detokenize{cmbs4:stages}\endcsname{fig.5.2}
\expandafter\gdef\csname\detokenize{cmbs4:taus}\endcsname{box.5.1}
\expandafter\gdef\csname\detokenize{cmbs4:eg_spectra}\endcsname{fig.5.3}
\expandafter\gdef\csname\detokenize{cmbs4:LandC}\endcsname{fig.5.4}
\expandafter\gdef\csname\detokenize{cmbs4:RonRn}\endcsname{fig.5.5}
\@input{chapters/5-monotile/fill.aux}
\expandafter\gdef\csname\detokenize{mono:intro_pic}\endcsname{fig.6.1}
\expandafter\gdef\csname\detokenize{mono:HFI}\endcsname{fig.6.2}
\expandafter\gdef\csname\detokenize{mono:planck_glitches}\endcsname{fig.6.3}
\expandafter\gdef\csname\detokenize{mono:glitch_eg}\endcsname{fig.6.4}
\expandafter\gdef\csname\detokenize{mono:mono_sw}\endcsname{fig.6.5}
\expandafter\gdef\csname\detokenize{mono:source_holder}\endcsname{fig.6.6}
\expandafter\gdef\csname\detokenize{mono:energy_int}\endcsname{box.6.1}
\expandafter\gdef\csname\detokenize{mono:flight_table}\endcsname{box.6.2}
\expandafter\gdef\csname\detokenize{mono:flight_res}\endcsname{fig.6.7}
\expandafter\gdef\csname\detokenize{mono:lab_res}\endcsname{fig.6.8}
\expandafter\gdef\csname\detokenize{mono:traces}\endcsname{fig.6.9}
\expandafter\gdef\csname\detokenize{mono:step}\endcsname{fig.6.10}
\@input{appendices/A-cosmology/fill.aux}
\expandafter\gdef\csname\detokenize{appn:cosm:conformal}\endcsname{box.A.1}
\expandafter\gdef\csname\detokenize{appn:cosm:conf_hub}\endcsname{box.A.2}
\expandafter\gdef\csname\detokenize{appn:cosm:coeffs}\endcsname{box.A.3}
\expandafter\gdef\csname\detokenize{appn:cosm:fluid}\endcsname{box.A.4}
\expandafter\gdef\csname\detokenize{appn:cosm:friedmanns}\endcsname{box.A.5}
\expandafter\gdef\csname\detokenize{appn:cosm:EL}\endcsname{box.A.6}
\expandafter\gdef\csname\detokenize{appn:cosm:svt}\endcsname{box.A.7}
\expandafter\gdef\csname\detokenize{appn:cosm:gauge}\endcsname{box.A.8}
\expandafter\gdef\csname\detokenize{appn:cosm:svt2}\endcsname{box.A.9}
\expandafter\gdef\csname\detokenize{appn:cosm:invars}\endcsname{box.A.10}
\expandafter\gdef\csname\detokenize{appn:cosm:invars2}\endcsname{box.A.11}
\expandafter\gdef\csname\detokenize{appn:cosm:svt4}\endcsname{box.A.12}
\expandafter\gdef\csname\detokenize{appn:cosm:negeta}\endcsname{box.A.13}
\expandafter\gdef\csname\detokenize{appn:cosm:deltaphi_sol1}\endcsname{box.A.14}
\expandafter\gdef\csname\detokenize{appn:cosm:deltaphi_sol2}\endcsname{box.A.15}
\expandafter\gdef\csname\detokenize{appn:cosm:deltaphi_sol3}\endcsname{box.A.16}
\expandafter\gdef\csname\detokenize{appn:cosm:deltaphi_quantize1}\endcsname{box.A.17}
\expandafter\gdef\csname\detokenize{appn:cosm:deltaphi_quantize2}\endcsname{box.A.18}
\expandafter\gdef\csname\detokenize{appn:cosm:deltaphi_spectrum}\endcsname{box.A.19}
\expandafter\gdef\csname\detokenize{appn:cosm:grav_waves}\endcsname{box.A.20}
\expandafter\gdef\csname\detokenize{appn:cosm:decomp}\endcsname{box.A.21}
\@input{appendices/B-code/fill.aux}
\@input{appendices/C-extras/fill.aux}
\expandafter\gdef\csname\detokenize{appn:extras:shape_geom}\endcsname{fig.C.1}
\expandafter\gdef\csname\detokenize{appn:extras:new_hist}\endcsname{fig.C.2}
\expandafter\gdef\csname\detokenize{appn:extras:LandCs}\endcsname{box.C.1}
\bibstyle{unsrt_short}
\bibdata{mybib}
\bibcite{phys.org:Planck_summary}{1}
\bibcite{wiki:History}{2}
\bibcite{CMBS4:2016:science}{3}
\bibcite{thesis:Karkare:2017}{4}
\bibcite{Einstein:1905}{5}
\bibcite{Einstein:1915}{6}
\bibcite{Hubble:1926}{7}
\bibcite{Friedmann:1922}{8}
\bibcite{Hubble:1929}{9}
\bibcite{Alpher:1948}{10}
\bibcite{Gamow:1946}{11}
\bibcite{Alpher:1948b}{12}
\bibcite{Penzias:1965}{13}
\bibcite{Dicke:1965}{14}
\bibcite{book:Dodelson:2003}{15}
\bibcite{book:MTW:1970}{16}
\@writefile{toc}{\contentsline {chapter}{Bibliography}{137}{section.151}\protected@file@percent }
\bibcite{Planck:2018:constraints}{17}
\bibcite{Freedman:2021}{18}
\bibcite{Aad:2020}{19}
\bibcite{Guth:1981}{20}
\bibcite{Linde:2014}{21}
\bibcite{book:Mukhanov:2007}{22}
\bibcite{book:Mukhanov:2005}{23}
\bibcite{Kamionkowski:2016}{24}
\bibcite{Kaloper:2019}{25}
\bibcite{Khoury:2003}{26}
\bibcite{BK:2021}{27}
\bibcite{BICEPKeck:2018:overview}{28}
\bibcite{Mather:1994}{29}
\bibcite{Betti:2019}{30}
\bibcite{Coc:2017}{31}
\bibcite{bicepkeck.org:visuals}{32}
\bibcite{Fixsen:2009}{33}
\bibcite{Crill:2003}{34}
\bibcite{Rabii:2006}{35}
\bibcite{thesis:Hu:2009}{36}
\bibcite{Dodelson:2003}{37}
\bibcite{Nagy:2017}{38}
\bibcite{wiki:Stokes}{39}
\bibcite{Hu:1997}{40}
\bibcite{Hu:1997b}{41}
\bibcite{Planck:2016}{42}
\bibcite{Lewis:2000}{43}
\bibcite{Gorski:1999}{44}
\bibcite{Choi:2020}{45}
\bibcite{Smoot:1992}{46}
\bibcite{Bennett:2003}{47}
\bibcite{Planck:I:2020}{48}
\bibcite{SPO:2021}{49}
\bibcite{Gualtieri:2018}{50}
\bibcite{Rahlin:2014}{51}
\bibcite{Fraisse:2013}{52}
\bibcite{Filippini:2010}{53}
\bibcite{Runyan:2010}{54}
\bibcite{Hubmayr:2016}{55}
\bibcite{Bergman:2018}{56}
\bibcite{Shaw:2020}{57}
\bibcite{Carlstrom:2011}{58}
\bibcite{Fowler:2007}{59}
\bibcite{thesis:Rahlin:2016}{60}
\bibcite{Soler:2014}{61}
\bibcite{nasa.gov:CSBF_balloons}{62}
\bibcite{Gudmundsson:2015}{63}
\bibcite{Shariff:2014}{64}
\bibcite{Gandilo:2014}{65}
\bibcite{Ade:2006}{66}
\bibcite{Bryan:2014}{67}
\bibcite{Kuo:2008}{68}
\bibcite{Ade:2015}{69}
\bibcite{DeKorte:2003}{70}
\bibcite{Battistelli:2008}{71}
\bibcite{Planck:X:2016}{72}
\bibcite{SPIDER:2021}{73}
\bibcite{chapter:Irwin_Hilton:TES:2005}{74}
\bibcite{thesis:Burney:2006}{75}
\bibcite{Hubmayr:2018}{76}
\bibcite{Johnson:1928}{77}
\bibcite{Fraser:2004}{78}
\bibcite{Lindeman:2006}{79}
\bibcite{Wessels:2019}{80}
\bibcite{SciPy:2020}{81}
\bibcite{cmb-s4.org:det_mods}{82}
\bibcite{CMBS4:2017:tech}{83}
\bibcite{CMBS4:2019:science}{84}
\bibcite{Anthony:2002}{85}
\bibcite{DESI:2014}{86}
\bibcite{Dawson:2019}{87}
\bibcite{Planck:X:2013}{88}
\bibcite{Suzuki:2018}{89}
\bibcite{Osherson:2020}{90}
\bibcite{Miniussi:2014}{91}
\bibcite{Catalano:2014a}{92}
\bibcite{Catalano:2014b}{93}
\bibcite{Haller:1996}{94}
\bibcite{Planck:IV:2011b}{95}
\bibcite{Hanany:2019}{96}
\bibcite{Tanabashi:2018}{97}
\bibcite{Asai:2013}{98}
\bibcite{book:Weinberg:2008}{99}
\bibcite{Baumann:Notes}{100}
