\BOOKMARK [0][-]{chapter*.5}{\376\377\000C\000h\000a\000p\000t\000e\000r\000\040\0001\000:\000\040\000C\000o\000s\000m\000o\000l\000o\000g\000y}{}% 1
\BOOKMARK [1][-]{section.7}{\376\377\000A\000\040\000b\000r\000i\000e\000f\000\040\000h\000i\000s\000t\000o\000r\000y\000\040\000o\000f\000\040\000c\000o\000s\000m\000o\000l\000o\000g\000y}{chapter*.5}% 2
\BOOKMARK [1][-]{section.9}{\376\377\000T\000h\000e\000\040\000e\000x\000p\000a\000n\000d\000i\000n\000g\000\040\000u\000n\000i\000v\000e\000r\000s\000e}{chapter*.5}% 3
\BOOKMARK [1][-]{section.11}{\376\377\000I\000n\000f\000l\000a\000t\000i\000o\000n}{chapter*.5}% 4
\BOOKMARK [1][-]{section.15}{\376\377\000T\000h\000e\000\040\000C\000M\000B}{chapter*.5}% 5
\BOOKMARK [1][-]{section.24}{\376\377\000C\000h\000a\000l\000l\000e\000n\000g\000e\000s\000\040\000i\000n\000\040\000m\000e\000a\000s\000u\000r\000i\000n\000g\000\040\000t\000h\000e\000\040\000C\000M\000B}{chapter*.5}% 6
\BOOKMARK [1][-]{section.26}{\376\377\000T\000h\000e\000s\000i\000s\000\040\000o\000u\000t\000l\000i\000n\000e}{chapter*.5}% 7
\BOOKMARK [0][-]{chapter*.28}{\376\377\000C\000h\000a\000p\000t\000e\000r\000\040\0002\000:\000\040\000S\000P\000I\000D\000E\000R}{}% 8
\BOOKMARK [1][-]{section.31}{\376\377\000B\000a\000l\000l\000o\000o\000n\000i\000n\000g\000\040\000f\000r\000o\000m\000\040\000A\000n\000t\000a\000r\000c\000t\000i\000c\000a}{chapter*.28}% 9
\BOOKMARK [1][-]{section.33}{\376\377\000P\000a\000y\000l\000o\000a\000d\000\040\000c\000o\000m\000p\000o\000n\000e\000n\000t\000s}{chapter*.28}% 10
\BOOKMARK [1][-]{section.37}{\376\377\000I\000n\000s\000e\000r\000t\000s\000\040\000a\000n\000d\000\040\000o\000p\000t\000i\000c\000s}{chapter*.28}% 11
\BOOKMARK [1][-]{section.42}{\376\377\000D\000e\000t\000e\000c\000t\000o\000r\000s\000\040\000a\000n\000d\000\040\000r\000e\000a\000d\000o\000u\000t}{chapter*.28}% 12
\BOOKMARK [1][-]{section.52}{\376\377\000S\000T\000A\000C\000Y\000\040\000a\000n\000d\000\040\000W\000E\000N\000D\000Y}{chapter*.28}% 13
\BOOKMARK [0][-]{chapter*.55}{\376\377\000C\000h\000a\000p\000t\000e\000r\000\040\0003\000:\000\040\000T\000E\000S\000s\000\040\000a\000n\000d\000\040\000M\000C\000E\000s}{}% 14
\BOOKMARK [1][-]{section.57}{\376\377\000P\000h\000y\000s\000i\000c\000a\000l\000\040\000d\000e\000s\000c\000r\000i\000p\000t\000i\000o\000n\000s\000\040\000o\000f\000\040\000T\000E\000S\000s}{chapter*.55}% 15
\BOOKMARK [1][-]{section.59}{\376\377\000T\000h\000e\000r\000m\000a\000l\000\040\000a\000n\000d\000\040\000e\000l\000e\000c\000t\000r\000i\000c\000a\000l\000\040\000m\000o\000d\000e\000l\000\040\000f\000o\000r\000\040\000t\000h\000e\000\040\000T\000E\000S}{chapter*.55}% 16
\BOOKMARK [1][-]{section.64}{\376\377\000T\000E\000S\000\040\000b\000e\000h\000a\000v\000i\000o\000r}{chapter*.55}% 17
\BOOKMARK [1][-]{section.70}{\376\377\000T\000E\000S\000\040\000S\000i\000m\000u\000l\000a\000t\000i\000o\000n\000s}{chapter*.55}% 18
\BOOKMARK [0][-]{chapter*.73}{\376\377\000C\000h\000a\000p\000t\000e\000r\000\040\0004\000:\000\040\000S\000P\000I\000D\000E\000R\000\040\000N\000o\000i\000s\000e}{}% 19
\BOOKMARK [1][-]{section.76}{\376\377\000E\000x\000p\000e\000c\000t\000e\000d\000\040\000N\000o\000i\000s\000e}{chapter*.73}% 20
\BOOKMARK [1][-]{section.78}{\376\377\000D\000a\000t\000a\000\040\000s\000e\000l\000e\000c\000t\000i\000o\000n}{chapter*.73}% 21
\BOOKMARK [1][-]{section.83}{\376\377\000F\000i\000t\000t\000i\000n\000g\000\040\000d\000e\000t\000e\000c\000t\000o\000r\000s}{chapter*.73}% 22
\BOOKMARK [1][-]{section.85}{\376\377\000F\000i\000t\000t\000i\000n\000g\000\040\000r\000e\000a\000d\000o\000u\000t\000\040\000a\000n\000d\000\040\000e\000x\000c\000e\000s\000s\000\040\000n\000o\000i\000s\000e}{chapter*.73}% 23
\BOOKMARK [1][-]{section.89}{\376\377\000D\000i\000s\000c\000u\000s\000s\000i\000o\000n}{chapter*.73}% 24
\BOOKMARK [0][-]{chapter*.91}{\376\377\000C\000h\000a\000p\000t\000e\000r\000\040\0005\000:\000\040\000C\000M\000B\000-\000S\0004\000\040\000D\000e\000t\000e\000c\000t\000o\000r\000\040\000D\000e\000s\000i\000g\000n}{}% 25
\BOOKMARK [1][-]{section.95}{\376\377\000C\000M\000B\000-\000S\0004\000\040\000d\000e\000s\000i\000g\000n}{chapter*.91}% 26
\BOOKMARK [1][-]{section.102}{\376\377\000P\000a\000r\000a\000m\000e\000t\000e\000r\000\040\000s\000e\000a\000r\000c\000h}{chapter*.91}% 27
\BOOKMARK [1][-]{section.106}{\376\377\000F\000u\000r\000t\000h\000e\000r\000\040\000w\000o\000r\000k}{chapter*.91}% 28
\BOOKMARK [0][-]{chapter*.108}{\376\377\000C\000h\000a\000p\000t\000e\000r\000\040\0006\000:\000\040\000T\000h\000e\000\040\000M\000o\000n\000o\000t\000i\000l\000e}{}% 29
\BOOKMARK [1][-]{section.110}{\376\377\000P\000l\000a\000n\000c\000k\000'\000s\000\040\000e\000x\000p\000e\000r\000i\000e\000n\000c\000e}{chapter*.108}% 30
\BOOKMARK [1][-]{section.113}{\376\377\000E\000x\000p\000e\000r\000i\000m\000e\000n\000t\000a\000l\000\040\000d\000a\000t\000a\000\040\000a\000n\000d\000\040\000a\000n\000a\000l\000y\000s\000i\000s}{chapter*.108}% 31
\BOOKMARK [1][-]{section.119}{\376\377\000A\000n\000a\000l\000y\000s\000i\000s}{chapter*.108}% 32
\BOOKMARK [1][-]{section.120}{\376\377\000R\000e\000s\000u\000l\000t\000s}{chapter*.108}% 33
\BOOKMARK [1][-]{section.127}{\376\377\000S\000t\000e\000p\000s}{chapter*.108}% 34
\BOOKMARK [1][-]{section.129}{\376\377\000D\000i\000s\000c\000u\000s\000s\000i\000o\000n}{chapter*.108}% 35
\BOOKMARK [0][-]{appendix*.132}{\376\377\000A\000p\000p\000e\000n\000d\000i\000x\000\040\000A\000:\000\040\000M\000o\000r\000e\000\040\000C\000o\000s\000m\000o\000l\000o\000g\000y\000\040\000E\000q\000u\000a\000t\000i\000o\000n\000s}{}% 36
\BOOKMARK [1][-]{section.133}{\376\377\000G\000e\000n\000e\000r\000a\000l\000\040\000c\000o\000s\000m\000o\000l\000o\000g\000y\000\040\000d\000e\000r\000i\000v\000a\000t\000i\000o\000n\000s}{appendix*.132}% 37
\BOOKMARK [1][-]{section.134}{\376\377\000I\000n\000f\000l\000a\000t\000i\000o\000n\000\040\000d\000e\000r\000i\000v\000a\000t\000i\000o\000n\000s}{appendix*.132}% 38
\BOOKMARK [1][-]{section.137}{\376\377\000E\000\040\000a\000n\000d\000\040\000B\000\040\000d\000e\000c\000o\000m\000p\000o\000s\000i\000t\000i\000o\000n}{appendix*.132}% 39
\BOOKMARK [0][-]{appendix*.139}{\376\377\000A\000p\000p\000e\000n\000d\000i\000x\000\040\000B\000:\000\040\000C\000o\000d\000e}{}% 40
\BOOKMARK [1][-]{section.140}{\376\377\000M\000C\000E\000\040\000s\000p\000e\000e\000d\000u\000p\000\040\000s\000c\000r\000i\000p\000t\000s}{appendix*.139}% 41
\BOOKMARK [1][-]{section.141}{\376\377\000E\000S\000T}{appendix*.139}% 42
\BOOKMARK [1][-]{section.142}{\376\377\000G\000E\000A\000N\000T\0004\000\040\000s\000i\000m\000s}{appendix*.139}% 43
\BOOKMARK [0][-]{appendix*.144}{\376\377\000A\000p\000p\000e\000n\000d\000i\000x\000\040\000C\000:\000\040\000E\000x\000t\000r\000a\000\040\000R\000e\000s\000u\000l\000t\000s}{}% 44
\BOOKMARK [1][-]{section.145}{\376\377\000L\000e\000g\000\040\000a\000n\000a\000l\000y\000s\000i\000s}{appendix*.144}% 45
\BOOKMARK [1][-]{section.149}{\376\377\000T\000h\000e\000r\000m\000a\000l\000\040\000m\000o\000d\000e\000l}{appendix*.144}% 46
\BOOKMARK [1][-]{section.151}{\376\377\000C\000M\000B\000-\000S\0004\000\040\000\050\000L\000,\000C\000\051\000\040\000c\000h\000o\000i\000c\000e\000s}{appendix*.144}% 47
\BOOKMARK [0][-]{section.151}{\376\377\000B\000i\000b\000l\000i\000o\000g\000r\000a\000p\000h\000y}{}% 48
