\relax 
\providecommand\hyper@newdestlabel[2]{}
\@writefile{toc}{\contentsline {chapter}{Chapter 3: TESs and MCEs}{46}{chapter*.55}\protected@file@percent }
\newlabel{dets}{{3}{46}{Chapter 3\\TESs and MCEs}{chapter*.55}{}}
\@writefile{toc}{\contentsline {section}{\numberline {3.1}Physical descriptions of TESs}{47}{section.57}\protected@file@percent }
\newlabel{dets:phys_desc}{{3.1}{47}{Physical descriptions of TESs}{section.57}{}}
\citation{chapter:Irwin_Hilton:TES:2005}
\citation{thesis:Rahlin:2016}
\@writefile{toc}{\contentsline {section}{\numberline {3.2}Thermal and electrical model for the TES}{48}{section.59}\protected@file@percent }
\newlabel{dets:sub_models}{{3.2}{48}{Thermal and electrical model for the TES}{section.59}{}}
\citation{thesis:Burney:2006}
\citation{chapter:Irwin_Hilton:TES:2005}
\@writefile{toc}{\contentsline {section}{\numberline {3.3}TES behavior}{54}{section.64}\protected@file@percent }
\newlabel{dets:tes_behave}{{3.3}{54}{TES behavior}{section.64}{}}
\@writefile{toc}{\contentsline {section}{\numberline {3.4}TES Simulations}{59}{section.70}\protected@file@percent }
\newlabel{dets:simulations}{{3.4}{59}{TES Simulations}{section.70}{}}
\@setckpt{chapters/2-detectors/fill}{
\setcounter{page}{61}
\setcounter{equation}{0}
\setcounter{enumi}{0}
\setcounter{enumii}{0}
\setcounter{enumiii}{0}
\setcounter{enumiv}{0}
\setcounter{footnote}{4}
\setcounter{mpfootnote}{0}
\setcounter{part}{0}
\setcounter{chapter}{3}
\setcounter{section}{4}
\setcounter{subsection}{0}
\setcounter{subsubsection}{0}
\setcounter{paragraph}{0}
\setcounter{subparagraph}{0}
\setcounter{figure}{0}
\setcounter{table}{0}
\setcounter{LT@tables}{0}
\setcounter{LT@chunks}{0}
\setcounter{caption@flags}{0}
\setcounter{continuedfloat}{0}
\setcounter{Item}{0}
\setcounter{Hfootnote}{22}
\setcounter{bookmark@seq@number}{18}
\setcounter{parentequation}{0}
\setcounter{subfigure}{0}
\setcounter{lofdepth}{1}
\setcounter{subtable}{0}
\setcounter{lotdepth}{1}
\setcounter{float@type}{16}
\setcounter{lstnumber}{1}
\setcounter{tcbbreakpart}{1}
\setcounter{tcblayer}{0}
\setcounter{tcolorbox@number}{50}
\setcounter{tcbrastercolumn}{0}
\setcounter{tcbrasterrow}{0}
\setcounter{tcbraster}{0}
\setcounter{tcblisting}{0}
\setcounter{pp@next@reset}{0}
\setcounter{eqnum}{12}
\setcounter{fignum}{9}
\setcounter{section@level}{0}
\setcounter{lstlisting}{0}
}
