\relax 
\providecommand\hyper@newdestlabel[2]{}
\providecommand\HyperFirstAtBeginDocument{\AtBeginDocument}
\HyperFirstAtBeginDocument{\ifx\hyper@anchor\@undefined
\global\let\oldcontentsline\contentsline
\gdef\contentsline#1#2#3#4{\oldcontentsline{#1}{#2}{#3}}
\global\let\oldnewlabel\newlabel
\gdef\newlabel#1#2{\newlabelxx{#1}#2}
\gdef\newlabelxx#1#2#3#4#5#6{\oldnewlabel{#1}{{#2}{#3}}}
\AtEndDocument{\ifx\hyper@anchor\@undefined
\let\contentsline\oldcontentsline
\let\newlabel\oldnewlabel
\fi}
\fi}
\global\let\hyper@last\relax 
\gdef\HyperFirstAtBeginDocument#1{#1}
\providecommand\HyField@AuxAddToFields[1]{}
\providecommand\HyField@AuxAddToCoFields[2]{}
\@input{fill.aux}
\expandafter\gdef\csname\detokenize{dets:intro_pic}\endcsname{fig.3.1}
\expandafter\gdef\csname\detokenize{dets:isl}\endcsname{fig.3.2}
\expandafter\gdef\csname\detokenize{dets:thm_dia}\endcsname{fig.3.3}
\expandafter\gdef\csname\detokenize{dets:thm_eq}\endcsname{box.3.1}
\expandafter\gdef\csname\detokenize{dets:thm_sub}\endcsname{box.3.2}
\expandafter\gdef\csname\detokenize{dets:ele_dia}\endcsname{fig.3.4}
\expandafter\gdef\csname\detokenize{dets:ele_eq}\endcsname{box.3.3}
\expandafter\gdef\csname\detokenize{dets:ele_thev}\endcsname{fig.3.5}
\expandafter\gdef\csname\detokenize{dets:ele_sub}\endcsname{box.3.4}
\expandafter\gdef\csname\detokenize{dets:alphabeta}\endcsname{box.3.5}
\expandafter\gdef\csname\detokenize{dets:tes_thm_linear}\endcsname{box.3.6}
\expandafter\gdef\csname\detokenize{dets:tes_ele_linear}\endcsname{box.3.7}
\expandafter\gdef\csname\detokenize{dets:tes_linear}\endcsname{box.3.8}
\expandafter\gdef\csname\detokenize{dets:tes_homogeneous}\endcsname{box.3.9}
\expandafter\gdef\csname\detokenize{dets:taus}\endcsname{fig.3.6}
\expandafter\gdef\csname\detokenize{dets:tes_response}\endcsname{box.3.10}
\expandafter\gdef\csname\detokenize{dets:tes_bias}\endcsname{box.3.11}
\expandafter\gdef\csname\detokenize{dets:sims}\endcsname{fig.3.7}
\expandafter\gdef\csname\detokenize{dets:loadcurves}\endcsname{fig.3.8}
\bibstyle{../../unsrt_short}
\bibdata{../../mybib}
\bibcite{chapter:Irwin_Hilton:TES:2005}{1}
\bibcite{thesis:Rahlin:2016}{2}
\bibcite{thesis:Burney:2006}{3}
