\relax 
\providecommand\hyper@newdestlabel[2]{}
\@writefile{toc}{\contentsline {chapter}{Chapter 4: SPIDER Noise}{61}{chapter*.73}\protected@file@percent }
\newlabel{nse}{{4}{61}{Chapter 4\\SPIDER Noise}{chapter*.73}{}}
\citation{chapter:Irwin_Hilton:TES:2005}
\citation{thesis:Rahlin:2016}
\@writefile{toc}{\contentsline {section}{\numberline {4.1}Expected Noise}{62}{section.76}\protected@file@percent }
\newlabel{nse:comp_models}{{4.1}{62}{Expected Noise}{section.76}{}}
\citation{Hubmayr:2018}
\citation{Johnson:1928}
\citation{Fraser:2004}
\citation{Lindeman:2006}
\citation{Wessels:2019}
\@writefile{toc}{\contentsline {section}{\numberline {4.2}Data selection}{65}{section.78}\protected@file@percent }
\newlabel{nse:data_sets}{{4.2}{65}{Data selection}{section.78}{}}
\citation{SciPy:2020}
\@writefile{toc}{\contentsline {section}{\numberline {4.3}Fitting detectors}{68}{section.83}\protected@file@percent }
\newlabel{nse:fit_det_models}{{4.3}{68}{Fitting detectors}{section.83}{}}
\@writefile{toc}{\contentsline {section}{\numberline {4.4}Fitting readout and excess noise}{71}{section.85}\protected@file@percent }
\newlabel{nse:fit_nse_models}{{4.4}{71}{Fitting readout and excess noise}{section.85}{}}
\@writefile{toc}{\contentsline {section}{\numberline {4.5}Discussion}{73}{section.89}\protected@file@percent }
\@setckpt{chapters/3-noise/fill}{
\setcounter{page}{77}
\setcounter{equation}{0}
\setcounter{enumi}{0}
\setcounter{enumii}{0}
\setcounter{enumiii}{0}
\setcounter{enumiv}{0}
\setcounter{footnote}{2}
\setcounter{mpfootnote}{0}
\setcounter{part}{0}
\setcounter{chapter}{4}
\setcounter{section}{5}
\setcounter{subsection}{0}
\setcounter{subsubsection}{0}
\setcounter{paragraph}{0}
\setcounter{subparagraph}{0}
\setcounter{figure}{0}
\setcounter{table}{0}
\setcounter{LT@tables}{0}
\setcounter{LT@chunks}{0}
\setcounter{caption@flags}{0}
\setcounter{continuedfloat}{0}
\setcounter{Item}{0}
\setcounter{Hfootnote}{25}
\setcounter{bookmark@seq@number}{24}
\setcounter{parentequation}{0}
\setcounter{subfigure}{0}
\setcounter{lofdepth}{1}
\setcounter{subtable}{0}
\setcounter{lotdepth}{1}
\setcounter{float@type}{16}
\setcounter{lstnumber}{1}
\setcounter{tcbbreakpart}{1}
\setcounter{tcblayer}{0}
\setcounter{tcolorbox@number}{64}
\setcounter{tcbrastercolumn}{0}
\setcounter{tcbrasterrow}{0}
\setcounter{tcbraster}{0}
\setcounter{tcblisting}{0}
\setcounter{pp@next@reset}{0}
\setcounter{eqnum}{8}
\setcounter{fignum}{9}
\setcounter{section@level}{0}
\setcounter{lstlisting}{0}
}
