This is BibTeX, Version 0.99d (TeX Live 2020)
Capacity: max_strings=200000, hash_size=200000, hash_prime=170003
The top-level auxiliary file: main_chapter.aux
A level-1 auxiliary file: fill.aux
The style file: ../../unsrt_short.bst
Database file #1: ../../mybib.bib
Warning--empty publisher in Fraser:2004
Warning--empty publisher in SciPy:2020
You've used 8 entries,
            1860 wiz_defined-function locations,
            522 strings with 6488 characters,
and the built_in function-call counts, 1885 in all, are:
= -- 176
> -- 61
< -- 2
+ -- 27
- -- 14
* -- 134
:= -- 300
add.period$ -- 24
call.type$ -- 8
change.case$ -- 7
chr.to.int$ -- 0
cite$ -- 10
duplicate$ -- 83
empty$ -- 193
format.name$ -- 14
if$ -- 420
int.to.chr$ -- 0
int.to.str$ -- 8
missing$ -- 6
newline$ -- 44
num.names$ -- 10
pop$ -- 22
preamble$ -- 1
purify$ -- 0
quote$ -- 0
skip$ -- 38
stack$ -- 0
substring$ -- 143
swap$ -- 16
text.length$ -- 2
text.prefix$ -- 0
top$ -- 0
type$ -- 0
warning$ -- 2
while$ -- 19
width$ -- 9
write$ -- 92
(There were 2 warnings)
