\relax 
\providecommand\hyper@newdestlabel[2]{}
\providecommand\HyperFirstAtBeginDocument{\AtBeginDocument}
\HyperFirstAtBeginDocument{\ifx\hyper@anchor\@undefined
\global\let\oldcontentsline\contentsline
\gdef\contentsline#1#2#3#4{\oldcontentsline{#1}{#2}{#3}}
\global\let\oldnewlabel\newlabel
\gdef\newlabel#1#2{\newlabelxx{#1}#2}
\gdef\newlabelxx#1#2#3#4#5#6{\oldnewlabel{#1}{{#2}{#3}}}
\AtEndDocument{\ifx\hyper@anchor\@undefined
\let\contentsline\oldcontentsline
\let\newlabel\oldnewlabel
\fi}
\fi}
\global\let\hyper@last\relax 
\gdef\HyperFirstAtBeginDocument#1{#1}
\providecommand\HyField@AuxAddToFields[1]{}
\providecommand\HyField@AuxAddToCoFields[2]{}
\@input{fill.aux}
\expandafter\gdef\csname\detokenize{nse:intro_fig}\endcsname{fig.4.1}
\expandafter\gdef\csname\detokenize{nse:photon_noise}\endcsname{box.4.1}
\expandafter\gdef\csname\detokenize{nse:phonon_noise}\endcsname{box.4.2}
\expandafter\gdef\csname\detokenize{nse:johnson_noise}\endcsname{box.4.3}
\expandafter\gdef\csname\detokenize{nse:NEI_conv}\endcsname{box.4.4}
\expandafter\gdef\csname\detokenize{nse:excess}\endcsname{box.4.5}
\expandafter\gdef\csname\detokenize{nse:sq_plat}\endcsname{box.4.6}
\expandafter\gdef\csname\detokenize{nse:total_sim}\endcsname{fig.4.2}
\expandafter\gdef\csname\detokenize{nse:sets}\endcsname{fig.4.3}
\expandafter\gdef\csname\detokenize{nse:lcs}\endcsname{fig.4.4}
\expandafter\gdef\csname\detokenize{nse:anom}\endcsname{fig.4.5}
\expandafter\gdef\csname\detokenize{nse:cuts1}\endcsname{box.4.7}
\expandafter\gdef\csname\detokenize{nse:param_fit}\endcsname{fig.4.6}
\expandafter\gdef\csname\detokenize{nse:pretty}\endcsname{fig.4.7}
\expandafter\gdef\csname\detokenize{nse:m_hist}\endcsname{fig.4.8}
\bibstyle{../../unsrt_short}
\bibdata{../../mybib}
\bibcite{chapter:Irwin_Hilton:TES:2005}{1}
\bibcite{thesis:Rahlin:2016}{2}
\bibcite{Hubmayr:2018}{3}
\bibcite{Johnson:1928}{4}
\bibcite{Fraser:2004}{5}
\bibcite{Lindeman:2006}{6}
\bibcite{Wessels:2019}{7}
\bibcite{SciPy:2020}{8}
