\relax 
\providecommand\hyper@newdestlabel[2]{}
\@writefile{toc}{\contentsline {chapter}{Appendix B: Code}{121}{appendix*.139}\protected@file@percent }
\newlabel{appn:code}{{B}{121}{Appendix B\\Code}{appendix*.139}{}}
\@writefile{toc}{\contentsline {section}{\numberline {B.1}MCE speedup scripts}{121}{section.140}\protected@file@percent }
\newlabel{appn:code:MMGF}{{B.1}{121}{MCE speedup scripts}{section.140}{}}
\@writefile{toc}{\contentsline {section}{\numberline {B.2}EST}{123}{section.141}\protected@file@percent }
\newlabel{appn:code:EST}{{B.2}{123}{EST}{section.141}{}}
\@writefile{toc}{\contentsline {section}{\numberline {B.3}GEANT4 sims}{126}{section.142}\protected@file@percent }
\newlabel{appn:code:geant}{{B.3}{126}{GEANT4 sims}{section.142}{}}
\@setckpt{appendices/B-code/fill}{
\setcounter{page}{131}
\setcounter{equation}{0}
\setcounter{enumi}{0}
\setcounter{enumii}{0}
\setcounter{enumiii}{0}
\setcounter{enumiv}{0}
\setcounter{footnote}{0}
\setcounter{mpfootnote}{0}
\setcounter{part}{0}
\setcounter{chapter}{2}
\setcounter{section}{3}
\setcounter{subsection}{0}
\setcounter{subsubsection}{0}
\setcounter{paragraph}{0}
\setcounter{subparagraph}{0}
\setcounter{figure}{0}
\setcounter{table}{0}
\setcounter{LT@tables}{0}
\setcounter{LT@chunks}{0}
\setcounter{caption@flags}{0}
\setcounter{continuedfloat}{0}
\setcounter{Item}{0}
\setcounter{Hfootnote}{40}
\setcounter{bookmark@seq@number}{43}
\setcounter{parentequation}{0}
\setcounter{subfigure}{0}
\setcounter{lofdepth}{1}
\setcounter{subtable}{0}
\setcounter{lotdepth}{1}
\setcounter{float@type}{16}
\setcounter{lstnumber}{1}
\setcounter{tcbbreakpart}{1}
\setcounter{tcblayer}{0}
\setcounter{tcolorbox@number}{101}
\setcounter{tcbrastercolumn}{0}
\setcounter{tcbrasterrow}{0}
\setcounter{tcbraster}{0}
\setcounter{tcblisting}{0}
\setcounter{pp@next@reset}{0}
\setcounter{eqnum}{1}
\setcounter{fignum}{1}
\setcounter{section@level}{0}
\setcounter{lstlisting}{0}
}
