\relax 
\providecommand\hyper@newdestlabel[2]{}
\citation{cmb-s4.org:det_mods}
\@writefile{toc}{\contentsline {chapter}{Chapter 5: \textsc  {CMB-S4}\xspace  Detector Design}{77}{chapter*.91}\protected@file@percent }
\newlabel{cmbs4}{{5}{77}{Chapter 5\\\cmbsIV Detector Design}{chapter*.91}{}}
\citation{CMBS4:2017:tech}
\citation{CMBS4:2019:science}
\citation{Anthony:2002}
\citation{DESI:2014}
\citation{CMBS4:2016:science}
\@writefile{toc}{\contentsline {section}{\numberline {5.1}\textsc  {CMB-S4}\xspace  design}{79}{section.95}\protected@file@percent }
\newlabel{cmbs4:constraints}{{5.1}{79}{\cmbsIV design}{section.95}{}}
\citation{Dawson:2019}
\@writefile{toc}{\contentsline {section}{\numberline {5.2}Parameter search}{81}{section.102}\protected@file@percent }
\newlabel{cmbs4:search}{{5.2}{81}{Parameter search}{section.102}{}}
\@writefile{toc}{\contentsline {section}{\numberline {5.3}Further work}{82}{section.106}\protected@file@percent }
\@setckpt{chapters/4-cmbs4/fill}{
\setcounter{page}{85}
\setcounter{equation}{0}
\setcounter{enumi}{0}
\setcounter{enumii}{0}
\setcounter{enumiii}{0}
\setcounter{enumiv}{0}
\setcounter{footnote}{7}
\setcounter{mpfootnote}{0}
\setcounter{part}{0}
\setcounter{chapter}{5}
\setcounter{section}{3}
\setcounter{subsection}{0}
\setcounter{subsubsection}{0}
\setcounter{paragraph}{0}
\setcounter{subparagraph}{0}
\setcounter{figure}{0}
\setcounter{table}{0}
\setcounter{LT@tables}{0}
\setcounter{LT@chunks}{0}
\setcounter{caption@flags}{0}
\setcounter{continuedfloat}{0}
\setcounter{Item}{0}
\setcounter{Hfootnote}{32}
\setcounter{bookmark@seq@number}{28}
\setcounter{parentequation}{0}
\setcounter{subfigure}{0}
\setcounter{lofdepth}{1}
\setcounter{subtable}{0}
\setcounter{lotdepth}{1}
\setcounter{float@type}{16}
\setcounter{lstnumber}{1}
\setcounter{tcbbreakpart}{1}
\setcounter{tcblayer}{0}
\setcounter{tcolorbox@number}{69}
\setcounter{tcbrastercolumn}{0}
\setcounter{tcbrasterrow}{0}
\setcounter{tcbraster}{0}
\setcounter{tcblisting}{0}
\setcounter{pp@next@reset}{0}
\setcounter{eqnum}{2}
\setcounter{fignum}{6}
\setcounter{section@level}{0}
\setcounter{lstlisting}{0}
}
