\relax 
\providecommand\hyper@newdestlabel[2]{}
\providecommand\HyperFirstAtBeginDocument{\AtBeginDocument}
\HyperFirstAtBeginDocument{\ifx\hyper@anchor\@undefined
\global\let\oldcontentsline\contentsline
\gdef\contentsline#1#2#3#4{\oldcontentsline{#1}{#2}{#3}}
\global\let\oldnewlabel\newlabel
\gdef\newlabel#1#2{\newlabelxx{#1}#2}
\gdef\newlabelxx#1#2#3#4#5#6{\oldnewlabel{#1}{{#2}{#3}}}
\AtEndDocument{\ifx\hyper@anchor\@undefined
\let\contentsline\oldcontentsline
\let\newlabel\oldnewlabel
\fi}
\fi}
\global\let\hyper@last\relax 
\gdef\HyperFirstAtBeginDocument#1{#1}
\providecommand\HyField@AuxAddToFields[1]{}
\providecommand\HyField@AuxAddToCoFields[2]{}
\@input{fill.aux}
\expandafter\gdef\csname\detokenize{cmbs4:intro_pic}\endcsname{fig.5.1}
\expandafter\gdef\csname\detokenize{cmbs4:stages}\endcsname{fig.5.2}
\expandafter\gdef\csname\detokenize{cmbs4:taus}\endcsname{box.5.1}
\expandafter\gdef\csname\detokenize{cmbs4:eg_spectra}\endcsname{fig.5.3}
\expandafter\gdef\csname\detokenize{cmbs4:LandC}\endcsname{fig.5.4}
\expandafter\gdef\csname\detokenize{cmbs4:RonRn}\endcsname{fig.5.5}
\bibstyle{../../unsrt_short}
\bibdata{../../mybib}
\bibcite{cmb-s4.org:det_mods}{1}
\bibcite{CMBS4:2017:tech}{2}
\bibcite{CMBS4:2019:science}{3}
\bibcite{Anthony:2002}{4}
\bibcite{DESI:2014}{5}
\bibcite{CMBS4:2016:science}{6}
\bibcite{Dawson:2019}{7}
