\begin{thebibliography}{1}



\bibitem{cmb-s4.org:det_mods}
detector and readout modules.
\newblock {\em CMB-S4}, cmb-s4.org.
\newblock https://cmb-s4.org/experiment/detector-and-readout-modules.

\bibitem{CMBS4:2017:tech}
Maximilian~H. Abitbol, et~al.
\newblock Cmb-s4 technology book, first edition, 2017.

\bibitem{CMBS4:2019:science}
Kevork Abazajian, et~al.
\newblock Cmb-s4 science case, reference design, and project plan, 2019.

\bibitem{Anthony:2002}
J.~Anthony Tyson.
\newblock Large synoptic survey telescope: Overview.
\newblock {\em Survey and Other Telescope Technologies and Discoveries}, SPIE,
  Dec 2002.

\bibitem{DESI:2014}
Brenna {Flaugher} and Chris {Bebek}.
\newblock {The Dark Energy Spectroscopic Instrument (DESI)}.
\newblock In Suzanne~K. {Ramsay}, Ian~S. {McLean}, and Hideki {Takami},
  editors, {\em Ground-based and Airborne Instrumentation for Astronomy V},
  volume 9147 of {\em Society of Photo-Optical Instrumentation Engineers (SPIE)
  Conference Series}, page 91470S, July 2014.

\bibitem{CMBS4:2016:science}
Kevork~N. Abazajian, et~al.
\newblock Cmb-s4 science book, first edition, 2016.

\bibitem{Dawson:2019}
Carl~S. Dawson, et~al.
\newblock Two-level switches for advanced time-division multiplexing.
\newblock {\em IEEE Transactions on Applied Superconductivity}, 29(5):1--5,
  2019.

\end{thebibliography}
