\relax 
\providecommand\hyper@newdestlabel[2]{}
\@writefile{toc}{\contentsline {chapter}{Chapter 6: The Monotile}{85}{chapter*.108}\protected@file@percent }
\newlabel{mono}{{6}{85}{Chapter 6\\The Monotile}{chapter*.108}{}}
\citation{Planck:X:2013}
\citation{Suzuki:2018}
\citation{Osherson:2020}
\citation{Planck:X:2013}
\citation{Miniussi:2014}
\citation{Catalano:2014a}
\citation{Catalano:2014b}
\citation{Haller:1996}
\@writefile{toc}{\contentsline {section}{\numberline {6.1}{\it  {Planck}}\xspace  's experience}{86}{section.110}\protected@file@percent }
\newlabel{mono:planck_xp}{{6.1}{86}{\planck 's experience}{section.110}{}}
\citation{Catalano:2014a}
\citation{Planck:IV:2011b}
\citation{Catalano:2014a}
\citation{Miniussi:2014}
\citation{Planck:IV:2011b}
\citation{Planck:X:2013}
\citation{Catalano:2014a}
\citation{Hanany:2019}
\citation{Tanabashi:2018}
\@writefile{toc}{\contentsline {section}{\numberline {6.2}Experimental data and analysis}{88}{section.113}\protected@file@percent }
\newlabel{mono:spider_data}{{6.2}{88}{Experimental data and analysis}{section.113}{}}
\@writefile{toc}{\contentsline {section}{\numberline {6.3}Analysis}{93}{section.119}\protected@file@percent }
\newlabel{mono:analysis}{{6.3}{93}{Analysis}{section.119}{}}
\citation{Asai:2013}
\citation{DeKorte:2003}
\@writefile{toc}{\contentsline {section}{\numberline {6.4}Results}{96}{section.120}\protected@file@percent }
\@writefile{toc}{\contentsline {section}{\numberline {6.5}Steps}{100}{section.127}\protected@file@percent }
\newlabel{mono:steps}{{6.5}{100}{Steps}{section.127}{}}
\@writefile{toc}{\contentsline {section}{\numberline {6.6}Discussion}{101}{section.129}\protected@file@percent }
\newlabel{mono:discussion}{{6.6}{101}{Discussion}{section.129}{}}
\newlabel{mono:step_miti}{{6.6}{103}{}{section.129}{}}
\@setckpt{chapters/5-monotile/fill}{
\setcounter{page}{104}
\setcounter{equation}{0}
\setcounter{enumi}{0}
\setcounter{enumii}{0}
\setcounter{enumiii}{0}
\setcounter{enumiv}{0}
\setcounter{footnote}{5}
\setcounter{mpfootnote}{0}
\setcounter{part}{0}
\setcounter{chapter}{6}
\setcounter{section}{6}
\setcounter{subsection}{0}
\setcounter{subsubsection}{0}
\setcounter{paragraph}{0}
\setcounter{subparagraph}{0}
\setcounter{figure}{0}
\setcounter{table}{0}
\setcounter{LT@tables}{0}
\setcounter{LT@chunks}{0}
\setcounter{caption@flags}{0}
\setcounter{continuedfloat}{0}
\setcounter{Item}{0}
\setcounter{Hfootnote}{38}
\setcounter{bookmark@seq@number}{35}
\setcounter{parentequation}{0}
\setcounter{subfigure}{0}
\setcounter{lofdepth}{1}
\setcounter{subtable}{0}
\setcounter{lotdepth}{1}
\setcounter{float@type}{16}
\setcounter{lstnumber}{1}
\setcounter{tcbbreakpart}{1}
\setcounter{tcblayer}{0}
\setcounter{tcolorbox@number}{80}
\setcounter{tcbrastercolumn}{0}
\setcounter{tcbrasterrow}{0}
\setcounter{tcbraster}{0}
\setcounter{tcblisting}{0}
\setcounter{pp@next@reset}{0}
\setcounter{eqnum}{3}
\setcounter{fignum}{11}
\setcounter{section@level}{0}
\setcounter{lstlisting}{0}
}
