\relax 
\providecommand\hyper@newdestlabel[2]{}
\providecommand\HyperFirstAtBeginDocument{\AtBeginDocument}
\HyperFirstAtBeginDocument{\ifx\hyper@anchor\@undefined
\global\let\oldcontentsline\contentsline
\gdef\contentsline#1#2#3#4{\oldcontentsline{#1}{#2}{#3}}
\global\let\oldnewlabel\newlabel
\gdef\newlabel#1#2{\newlabelxx{#1}#2}
\gdef\newlabelxx#1#2#3#4#5#6{\oldnewlabel{#1}{{#2}{#3}}}
\AtEndDocument{\ifx\hyper@anchor\@undefined
\let\contentsline\oldcontentsline
\let\newlabel\oldnewlabel
\fi}
\fi}
\global\let\hyper@last\relax 
\gdef\HyperFirstAtBeginDocument#1{#1}
\providecommand\HyField@AuxAddToFields[1]{}
\providecommand\HyField@AuxAddToCoFields[2]{}
\@input{fill.aux}
\expandafter\gdef\csname\detokenize{mono:intro_pic}\endcsname{fig.6.1}
\expandafter\gdef\csname\detokenize{mono:HFI}\endcsname{fig.6.2}
\expandafter\gdef\csname\detokenize{mono:planck_glitches}\endcsname{fig.6.3}
\expandafter\gdef\csname\detokenize{mono:glitch_eg}\endcsname{fig.6.4}
\expandafter\gdef\csname\detokenize{mono:mono_sw}\endcsname{fig.6.5}
\expandafter\gdef\csname\detokenize{mono:source_holder}\endcsname{fig.6.6}
\expandafter\gdef\csname\detokenize{mono:energy_int}\endcsname{box.6.1}
\expandafter\gdef\csname\detokenize{mono:flight_table}\endcsname{box.6.2}
\expandafter\gdef\csname\detokenize{mono:flight_res}\endcsname{fig.6.7}
\expandafter\gdef\csname\detokenize{mono:lab_res}\endcsname{fig.6.8}
\expandafter\gdef\csname\detokenize{mono:traces}\endcsname{fig.6.9}
\expandafter\gdef\csname\detokenize{mono:step}\endcsname{fig.6.10}
\bibstyle{../../unsrt_short}
\bibdata{../../mybib}
\bibcite{Planck:X:2013}{1}
\bibcite{Suzuki:2018}{2}
\bibcite{Osherson:2020}{3}
\bibcite{Miniussi:2014}{4}
\bibcite{Catalano:2014a}{5}
\bibcite{Catalano:2014b}{6}
\bibcite{Haller:1996}{7}
\bibcite{Planck:IV:2011b}{8}
\bibcite{Hanany:2019}{9}
\bibcite{Tanabashi:2018}{10}
\bibcite{Asai:2013}{11}
\bibcite{DeKorte:2003}{12}
