\BOOKMARK [0][-]{Doc-Start}{Chapter 6: The Monotile}{}% 1
\BOOKMARK [1][-]{section.1}{Planck's experience}{Doc-Start}% 2
\BOOKMARK [1][-]{section.2}{Experimental data and analysis}{Doc-Start}% 3
\BOOKMARK [1][-]{section.3}{Analysis}{Doc-Start}% 4
\BOOKMARK [1][-]{section.4}{Results}{Doc-Start}% 5
\BOOKMARK [1][-]{section.5}{Steps}{Doc-Start}% 6
\BOOKMARK [1][-]{section.6}{Discussion}{Doc-Start}% 7
